<svg width="18" height="18" viewBox="0 0 18 18" fill="none" xmlns="http://www.w3.org/2000/svg">
<path d="M5.8 13V13C4.80589 13 4 12.1941 4 11.2V7.52C4 6.28788 4 5.67183 4.23979 5.20122C4.45071 4.78726 4.78726 4.45071 5.20122 4.23979C5.67183 4 6.28788 4 7.52 4H11.2C12.1941 4 13 4.80589 13 5.8V5.8" stroke="#999999"/>
<rect x="5.8335" y="5.83333" width="9" height="9" rx="2" stroke="#999999"/>
<path d="M7.6665 10.4166H10.4165" stroke="#999999" stroke-linecap="round"/>
<path d="M7.6665 8.5833H12.2498" stroke="#999999" stroke-linecap="round"/>
</svg>
