<svg width="18" height="18" viewBox="0 0 18 18" fill="none" xmlns="http://www.w3.org/2000/svg">
<path d="M4 6V6C5.79095 6 7.38032 7.14768 7.94369 8.84771L8 9.01763C8.59698 10.8191 10.2812 12.0353 12.179 12.0353H13.9506" stroke="#999999" stroke-linecap="round"/>
<path d="M12.5767 10.4272L13.9999 12.0353L12.5767 13.6433" stroke="#999999" stroke-linecap="round" stroke-linejoin="round"/>
<path d="M4 12.6433V12.6433C5.79095 12.6433 7.38032 11.4957 7.94369 9.79563L8 9.62571C8.59698 7.82424 10.2812 6.60808 12.179 6.60808H13.9506" stroke="#999999" stroke-linecap="round"/>
<path d="M12.5767 8.21613L13.9999 6.60806L12.5767 5" stroke="#999999" stroke-linecap="round" stroke-linejoin="round"/>
</svg>
