<svg width="30" height="31" viewBox="0 0 30 31" fill="none" xmlns="http://www.w3.org/2000/svg">
<rect x="7.75" y="9.64983" width="14.5" height="11.9799" rx="2.25" stroke="#999999" stroke-width="1.5"/>
<path fill-rule="evenodd" clip-rule="evenodd" d="M16.8716 15.3953C16.673 15.1746 16.3269 15.1746 16.1283 15.3953L14.3685 17.3507L13.3537 16.3359C13.1585 16.1407 12.8419 16.1407 12.6466 16.3359L9.85375 19.1288C9.53877 19.4438 9.76185 19.9824 10.2073 19.9824H14.2453H14.586H19.8773C20.3102 19.9824 20.5385 19.4697 20.2489 19.1479L16.8716 15.3953Z" fill="#999999"/>
<circle cx="12.1123" cy="13.9583" r="1.27148" fill="#999999"/>
</svg>
