<svg width="30" height="31" viewBox="0 0 30 31" fill="none" xmlns="http://www.w3.org/2000/svg">
<path d="M14 10.5L22 10.5" stroke="#999999" stroke-width="1.5" stroke-linecap="round" stroke-linejoin="round"/>
<path d="M9.17 16.5H7.83V10.95L6.74 11.73V10.23L7.83 9.38H9.17V16.5Z" fill="#999999"/>
<path d="M14 15.5L22 15.5" stroke="#999999" stroke-width="1.5" stroke-linecap="round" stroke-linejoin="round"/>
<path d="M7.88232 20.6765L22 20.6765" stroke="#999999" stroke-width="1.5" stroke-linecap="round" stroke-linejoin="round"/>
<circle cx="11.2241" cy="15.5" r="0.75" fill="#999999"/>
</svg>
